Planet Name,Star Name,Star Dyson Luminosity,Star Type,Star Mass,Star Position X,Star Position Y,Star Position Z,Wind Strength,Luminosity on Planet,Planet Type,Land Percent,Singularity,Planet/Moon,Orbit Inclination,Ocean,Iron veins,Copper veins,Silicon veins,Titanium veins,Stone veins,Coal veins,Crude oil seep,Fire ice vein,Kimberlite vein,Fractal silicon vein,Organic crystal vein,Optical grating crystal vein,Spiniform stalagmite crystal vein,Unipolar magnet vein,Hydrogen,Deuterium,Fire ice,
Alpha Arietis I,Alpha Arietis,0.982,G type star,0.9236094,0,0,0,0.7,1.12,Lava,0.9477736,"None",0,-1.101959,Lava,342998960679,308999237775,13988167730,176989614003,38999997106,6997098156,0,0,0,0,0,0,0,0,0,0,0,
Alpha Arietis II,Alpha Arietis,0.982,G type star,0.9236094,0,0,0,0,0.92,Gas giant,0,"None",0,5.7158,None,0,0,0,0,0,0,0,0,0,0,0,0,0,0,0.7966391,0.03191222,0,
Alpha Arietis III,Alpha Arietis,0.982,G type star,0.9236094,0,0,0,1,0.92,Mediterranean,0.9812381,"None",2,-8.285791,Water,86975416125,77985940768,0,0,165980420128,193984690313,31.3388792083133,0,0,0,0,0,0,0,0,0,0,
Alpha Arietis IV,Alpha Arietis,0.982,G type star,0.9236094,0,0,0,0,0.45,Barren desert,1,"None",0,-4.584265,None,23000000000,30000000000,42982807058,107996588885,294000000000,0,0,0,0,0,0,0,0,0,0,0,0,
Beta Pavonis I,Beta Pavonis,0.874,M type star,0.558698,2.89636236427131,-0.0347408997068849,-0.0178741751415848,0,0.63,Ice giant,0,"None",0,-7.710818,None,0,0,0,0,0,0,0,0,0,0,0,0,0,0,0.2612296,0,0.653104,
Beta Pavonis II,Beta Pavonis,0.874,M type star,0.558698,2.89636236427131,-0.0347408997068849,-0.0178741751415848,1,0.63,Red stone,0,"None",1,1.250049,Water,60999989262,96999996562,0,0,167000000000,138999995032,41.9272389408288,0,0,0,19998967025,0,14999727751,0,0,0,0,
Beta Pavonis III,Beta Pavonis,0.874,M type star,0.558698,2.89636236427131,-0.0347408997068849,-0.0178741751415848,0.7,0.43,Ice field gelisol,0.9872033,"None",0,0.652649,Water,52000000000,4000000000,36000000000,236000000000,37000000000,4000000000,0,238000000000,0,31000000000,0,0,0,0,0,0,0,
θ Trianguli Australis I,θ Trianguli Australis,0.819,M type star,0.4212453,-2.94726391488023,-0.936212183929371,-2.80635814780322,0,0.59,Barren desert,1,"TidalLocked",0,-2.513409,None,20000000000,31000000000,42000000000,128000000000,337000000000,0,0,20000000000,20000000000,0,0,0,0,0,0,0,0,
θ Trianguli Australis II,θ Trianguli Australis,0.819,M type star,0.4212453,-2.94726391488023,-0.936212183929371,-2.80635814780322,0,0.48,Ice giant,0,"None",0,7.054871,None,0,0,0,0,0,0,0,0,0,0,0,0,0,0,0.2695398,0,0.6774012,
θ Trianguli Australis III,θ Trianguli Australis,0.819,M type star,0.4212453,-2.94726391488023,-0.936212183929371,-2.80635814780322,0.7,0.48,Ice field gelisol,0.9848766,"None",2,16.68672,Water,65000000000,4000000000,51000000000,201000000000,33000000000,5000000000,0,152000000000,0,15000000000,0,0,0,0,0,0,0,
Maaz I,Maaz,0.793,M type star,0.366825,4.64375448146819,-0.600738598960262,6.35901924558416,0,0.6,Barren desert,1,"None",0,5.074507,None,43000000000,24000000000,24000000000,134000000000,307000000000,0,0,18000000000,0,0,0,0,0,0,0,0,0,
Maaz II,Maaz,0.793,M type star,0.366825,4.64375448146819,-0.600738598960262,6.35901924558416,0.4,0.49,Ashen gelisol,1,"TidalLocked",0,2.322612,None,154000000000,23000000000,176000000000,44000000000,108000000000,7000000000,0,88000000000,0,0,0,0,0,0,0,0,0,
Maaz III,Maaz,0.793,M type star,0.366825,4.64375448146819,-0.600738598960262,6.35901924558416,0,0.4,Gas giant,0,"None",0,3.951473,None,0,0,0,0,0,0,0,0,0,0,0,0,0,0,1.025796,0.0435662,0,
Maaz IV,Maaz,0.793,M type star,0.366825,4.64375448146819,-0.600738598960262,6.35901924558416,0.7,0.4,Ice field gelisol,0.989332,"None",3,1.353652,Water,53000000000,4000000000,54000000000,223000000000,51000000000,4000000000,0,46000000000,0,0,0,0,0,0,0,0,0,
Iota Carinae I,Iota Carinae,0.905,K type star,0.6491002,5.91332602572177,0.670621742930874,-5.52213119530507,1.1,0.87,Prairie,0.8750774,"None",0,-6.401626,Water,119000000000,51000000000,101000000000,8000000000,32000000000,147000000000,86.416997816923,0,0,0,21000000000,0,19000000000,0,0,0,0,
Iota Carinae II,Iota Carinae,0.905,K type star,0.6491002,5.91332602572177,0.670621742930874,-5.52213119530507,0.7,0.58,Ice field gelisol,0.9916834,"None",0,-6.856497,Water,52000000000,4000000000,69000000000,193000000000,53000000000,4000000000,0,222000000000,0,0,0,0,0,0,0,0,0,
Iota Carinae III,Iota Carinae,0.905,K type star,0.6491002,5.91332602572177,0.670621742930874,-5.52213119530507,0.4,0.49,Ashen gelisol,1,"None",0,-3.322915,None,176000000000,21000000000,173000000000,63000000000,104000000000,7000000000,0,0,0,14000000000,0,0,0,0,0,0,0,
DenebelOkab I,DenebelOkab,0.929,K type star,0.7277365,6.08531173531355,-1.44095428410195,4.61614914569161,1,0.78,Red stone,0.6482018,"None",0,-3.80343,Water,49000000000,77000000000,0,0,195000000000,163000000000,48.9021587646275,0,10000000000,0,18000000000,0,0,0,0,0,0,
DenebelOkab II,DenebelOkab,0.929,K type star,0.7277365,6.08531173531355,-1.44095428410195,4.61614914569161,0.7,0.63,Ice field gelisol,0.9963367,"None",0,5.312009,Water,65000000000,4000000000,53000000000,196000000000,36000000000,4000000000,0,24000000000,0,0,0,10000000000,0,0,0,0,0,
DenebelOkab III,DenebelOkab,0.929,K type star,0.7277365,6.08531173531355,-1.44095428410195,4.61614914569161,0.4,0.53,Ashen gelisol,1,"None",0,2.314153,None,132000000000,11000000000,175000000000,92000000000,136000000000,6000000000,0,44000000000,0,0,0,0,0,0,0,0,0,
64 Pyxidis I,64 Pyxidis,0.925,K type star,0.7137935,0.456118355165493,-0.492292197824418,4.60152975162834,0.8,0.94,Gobi,0.9875003,"None",0,-1.939467,None,10000000000,173000000000,174000000000,0,157000000000,47000000000,0,0,0,0,0,34000000000,0,0,0,0,0,
64 Pyxidis II,64 Pyxidis,0.925,K type star,0.7137935,0.456118355165493,-0.492292197824418,4.60152975162834,1,0.77,Red stone,0,"None",0,0.1962721,Water,46999999833,85000000000,0,0,209000000000,187000000000,40.1802389849618,0,0,0,51000000000,0,16998162292,0,0,0,0,
64 Pyxidis III,64 Pyxidis,0.925,K type star,0.7137935,0.456118355165493,-0.492292197824418,4.60152975162834,0.4,0.62,Ashen gelisol,1,"None",0,-7.481017,None,131000000000,10000000000,171000000000,84000000000,109000000000,7000000000,0,42000000000,0,0,0,0,0,0,0,0,0,
γ Cassiopeiae I,γ Cassiopeiae,0.96,K type star,0.8486483,-0.566824291645213,-0.0624318651864597,6.91114110370087,1.5,1.29,Arid desert,1,"None",0,-2.481166,None,32000000000,201000000000,0,109000000000,226000000000,7000000000,0,0,0,0,0,0,0,0,0,0,0,
γ Cassiopeiae II,γ Cassiopeiae,0.96,K type star,0.8486483,-0.566824291645213,-0.0624318651864597,6.91114110370087,0.4,0.7,Ashen gelisol,1,"None",0,4.762725,None,130000000000,34000000000,132000000000,86000000000,109000000000,7000000000,0,12000000000,0,0,0,0,0,0,0,0,0,
γ Cassiopeiae III,γ Cassiopeiae,0.96,K type star,0.8486483,-0.566824291645213,-0.0624318651864597,6.91114110370087,0.7,0.59,Ice field gelisol,0.9889854,"None",0,-7.185902,Water,78000000000,4000000000,68000000000,194000000000,34000000000,5000000000,0,23000000000,0,0,0,0,0,0,0,0,0,
γ Cassiopeiae IV,γ Cassiopeiae,0.96,K type star,0.8486483,-0.566824291645213,-0.0624318651864597,6.91114110370087,0.8,0.5,Gobi,0.9800005,"None",0,-7.103649,None,19000000000,176000000000,169000000000,0,184000000000,64000000000,0,0,12000000000,52000000000,0,0,0,0,0,0,0,
Alpha Caeli I,Alpha Caeli,0.927,K type star,0.7218025,4.91268578534461,-1.11348745113179,-3.54951671972268,0.4,0.63,Ashen gelisol,1,"None",0,-2.794211,None,158000000000,10000000000,130000000000,88000000000,139000000000,7000000000,0,0,0,13000000000,0,0,0,0,0,0,0,
Alpha Caeli II,Alpha Caeli,0.927,K type star,0.7218025,4.91268578534461,-1.11348745113179,-3.54951671972268,0.7,0.52,Ice field gelisol,0.9812876,"LaySide",0,-2.073623,Water,77000000000,5000000000,35000000000,244000000000,17000000000,5000000000,0,195000000000,0,0,0,0,0,0,0,0,0,
Alpha Caeli III,Alpha Caeli,0.927,K type star,0.7218025,4.91268578534461,-1.11348745113179,-3.54951671972268,0,0.44,Barren desert,1,"None",0,-1.187125,None,42000000000,44000000000,23000000000,132000000000,341000000000,0,0,0,0,0,0,0,0,0,0,0,0,
Alpha Caeli IV,Alpha Caeli,0.927,K type star,0.7218025,4.91268578534461,-1.11348745113179,-3.54951671972268,0.8,0.38,Gobi,0.9915349,"None",0,7.074337,None,18000000000,153000000000,153000000000,0,130000000000,46000000000,0,0,0,0,0,0,0,0,0,0,0,
Delta Piscium I,Delta Piscium,0.868,M type star,0.5412223,-10.8879246889781,0.592240630342224,1.17986133371092,0.7,0.36,Ice field gelisol,0.9799758,"None",0,2.533781,Water,78000000000,4000000000,73000000000,248000000000,19000000000,4000000000,0,23000000000,0,0,0,41000000000,0,0,0,0,0,
Delta Piscium II,Delta Piscium,0.868,M type star,0.5412223,-10.8879246889781,0.592240630342224,1.17986133371092,1.5,0.26,Arid desert,1,"None",0,-0.700307,None,46000000000,245000000000,0,131000000000,202000000000,7000000000,0,0,14000000000,0,0,0,0,0,0,0,0,
37 Gruis I,37 Gruis,0.885,M type star,0.5905268,3.32010278566137,-2.51683777120106,3.10250435368129,1,0.81,Red stone,0.5468924,"None",0,3.790457,Water,68000000000,67000000000,0,0,190000000000,145000000000,40.5995589743688,0,0,0,53000000000,0,9000000000,0,0,0,0,
37 Gruis II,37 Gruis,0.885,M type star,0.5905268,3.32010278566137,-2.51683777120106,3.10250435368129,1.1,0.67,Ocean world,0.004702854,"None",0,4.064496,Water,0,0,0,0,0,23000000000,65.8822383356746,0,0,0,0,0,218000000000,0,0,0,0,
37 Gruis III,37 Gruis,0.885,M type star,0.5905268,3.32010278566137,-2.51683777120106,3.10250435368129,0.4,0.54,Ashen gelisol,1,"LaySide",0,-6.860959,None,179000000000,22000000000,137000000000,45000000000,123000000000,6000000000,0,69000000000,0,0,0,0,0,0,0,0,0,
37 Gruis IV,37 Gruis,0.885,M type star,0.5905268,3.32010278566137,-2.51683777120106,3.10250435368129,0,0.45,Barren desert,1,"None",0,-3.430481,None,31000000000,21000000000,22000000000,131000000000,299000000000,0,0,124000000000,41000000000,0,0,0,0,0,0,0,0,
Alfecca I,Alfecca,1.014,G type star,1.062878,8.24410373382945,-0.8943629822453,-12.4453883864739,0.8,1.37,Volcanic ash,0.9868815,"None",0,3.535829,Sulfuric acid,219000000000,201000000000,24000000000,133000000000,66000000000,6000000000,0,0,0,0,0,0,0,0,0,0,0,
Alfecca II,Alfecca,1.014,G type star,1.062878,8.24410373382945,-0.8943629822453,-12.4453883864739,0.7,1.19,Lava,0.840796,"None",0,1.182927,Lava,267000000000,306000000000,26000000000,181000000000,54000000000,7000000000,0,0,0,0,0,0,0,0,0,0,0,
Alfecca III,Alfecca,1.014,G type star,1.062878,8.24410373382945,-0.8943629822453,-12.4453883864739,0.7,0.58,Ice field gelisol,0.9925249,"None",0,0.9995443,Water,79000000000,5000000000,36000000000,219000000000,52000000000,4000000000,0,20000000000,0,0,0,0,0,0,0,0,0,
Alfecca IV,Alfecca,1.014,G type star,1.062878,8.24410373382945,-0.8943629822453,-12.4453883864739,0,0.5,Barren desert,1,"None",0,-3.108599,None,23000000000,34000000000,21000000000,154000000000,317000000000,0,0,0,0,0,0,0,0,0,0,0,0,
Saak I,Saak,0.996,G type star,0.9832712,8.13999318713614,-3.89259500867872,-7.37818419744366,0.7,1.15,Lava,0.8668845,"TidalLocked",0,-1.759673,Lava,269000000000,331000000000,13000000000,220000000000,62000000000,4000000000,0,0,0,0,0,0,0,0,0,0,0,
Saak II,Saak,0.996,G type star,0.9832712,8.13999318713614,-3.89259500867872,-7.37818419744366,0.7,0.66,Ice field gelisol,0.9853221,"None",0,6.715665,Water,84000000000,4000000000,54000000000,200000000000,56000000000,4000000000,0,68000000000,0,0,0,0,0,0,0,0,0,
Saak III,Saak,0.996,G type star,0.9832712,8.13999318713614,-3.89259500867872,-7.37818419744366,0.4,0.41,Ashen gelisol,1,"None",0,-0.8971706,None,177000000000,30000000000,157000000000,88000000000,111000000000,7000000000,0,33000000000,0,9000000000,0,0,0,0,0,0,0,
Genam I,Genam,0.891,M type star,0.6064371,5.04631331381673,-1.83570013784892,-16.5026637655532,1.1,0.67,Ocean world,0.005272147,"TidalLocked",0,2.354178,Water,0,0,0,0,0,12000000000,166.257395799985,0,0,0,0,0,260000000000,0,0,0,0,
Genam II,Genam,0.891,M type star,0.6064371,5.04631331381673,-1.83570013784892,-16.5026637655532,0,0.55,Barren desert,1,"None",0,1.250362,None,22000000000,24000000000,46000000000,150000000000,321000000000,0,0,21000000000,102000000000,0,0,0,0,0,0,0,0,
Genam III,Genam,0.891,M type star,0.6064371,5.04631331381673,-1.83570013784892,-16.5026637655532,0.7,0.46,Ice field gelisol,0.9915101,"None",0,0.8878707,Water,78000000000,4000000000,55000000000,193000000000,36000000000,4000000000,0,45000000000,0,0,0,0,0,0,0,0,0,
VV Cephei I,VV Cephei,1.585,White giant,4.107592,4.89208595161597,-2.13747579634417,-19.2074267604662,0.8,1.68,Volcanic ash,0.9914854,"TidalLocked2",0,-4.689148,Sulfuric acid,198000000000,192000000000,13000000000,180000000000,67000000000,6000000000,0,0,0,0,0,0,0,0,0,0,0,
45 Antliae I,45 Antliae,1.042,G type star,1.195975,2.5053137691208,-1.54691898736128,-19.7117630537515,0.8,1.05,Gobi,0.9948021,"None",0,5.938575,None,18000000000,157000000000,193000000000,0,124000000000,63000000000,0,0,0,0,0,0,0,0,0,0,0,
45 Antliae II,45 Antliae,1.042,G type star,1.195975,2.5053137691208,-1.54691898736128,-19.7117630537515,1,0.88,Red stone,0.6348853,"None",0,-1.377063,Water,59000000000,61000000000,0,0,180000000000,135000000000,107.741357278224,0,0,0,21000000000,0,0,0,0,0,0,
45 Antliae III,45 Antliae,1.042,G type star,1.195975,2.5053137691208,-1.54691898736128,-19.7117630537515,0.4,0.62,Ashen gelisol,1,"None",0,-7.317833,None,155000000000,22000000000,179000000000,47000000000,110000000000,7000000000,0,0,0,0,0,0,0,0,0,0,0,
45 Antliae IV,45 Antliae,1.042,G type star,1.195975,2.5053137691208,-1.54691898736128,-19.7117630537515,0.7,0.52,Ice field gelisol,0.9903963,"None",0,-7.70485,Water,65000000000,4000000000,55000000000,205000000000,18000000000,5000000000,0,200000000000,0,0,0,0,0,0,0,0,0,
Meres I,Meres,0.922,K type star,0.7051579,4.10363682129748,-0.837488845953546,-21.5255888647279,0.8,0.93,Gobi,0.990223,"None",0,3.804535,None,27000000000,186000000000,157000000000,0,174000000000,32000000000,0,0,80000000000,27000000000,0,0,0,0,0,0,0,
Meres II,Meres,0.922,K type star,0.7051579,4.10363682129748,-0.837488845953546,-21.5255888647279,1.1,0.75,Ocean world,0.003341501,"None",0,-6.085831,Water,0,0,0,0,0,10000000000,180.885635430444,0,0,0,0,0,153000000000,0,0,0,0,
Meres III,Meres,0.922,K type star,0.7051579,4.10363682129748,-0.837488845953546,-21.5255888647279,0,0.61,Gas giant,0,"None",0,-0.1620417,None,0,0,0,0,0,0,0,0,0,0,0,0,0,0,1.267991,0.05267525,0,
Meres IV,Meres,0.922,K type star,0.7051579,4.10363682129748,-0.837488845953546,-21.5255888647279,0.7,0.61,Ice field gelisol,0.9820054,"None",3,-12.3145,Water,53000000000,4000000000,35000000000,220000000000,52000000000,5000000000,0,240000000000,0,0,0,0,0,0,0,0,0,
Giausar I,Giausar,0.971,G type star,0.8796389,5.01176845031259,-1.0064589707307,-24.3173357425736,1.5,1.09,Arid desert,1,"LaySide",0,0.937651,None,44000000000,214000000000,0,157000000000,249000000000,7000000000,0,0,0,0,0,0,0,0,0,0,0,
Giausar II,Giausar,0.971,G type star,0.8796389,5.01176845031259,-1.0064589707307,-24.3173357425736,1.1,0.9,Prairie,0.8667607,"None",0,-1.820624,Water,104000000000,52000000000,122000000000,8000000000,26000000000,167000000000,259.560033442962,0,0,0,22000000000,0,0,0,0,0,0,
Giausar III,Giausar,0.971,G type star,0.8796389,5.01176845031259,-1.0064589707307,-24.3173357425736,0,0.74,Gas giant,0,"None",0,4.408784,None,0,0,0,0,0,0,0,0,0,0,0,0,0,0,1.333751,0.05248901,0,
Giausar IV,Giausar,0.971,G type star,0.8796389,5.01176845031259,-1.0064589707307,-24.3173357425736,0.4,0.74,Ashen gelisol,1,"None",3,-2.570377,None,174000000000,11000000000,154000000000,44000000000,116000000000,6000000000,0,0,0,0,0,0,0,0,0,0,0,
DenebDulfim I,DenebDulfim,1.011,G type star,1.047575,12.9015162099349,-1.60557838233508,-8.97142599089495,1,0.82,Oceanic jungle,0.555308,"None",0,4.705093,Water,67000000000,17000000000,258000000000,0,86000000000,226000000000,159.02739598263,0,0,0,51000000000,0,9000000000,0,0,0,0,
DenebDulfim II,DenebDulfim,1.011,G type star,1.047575,12.9015162099349,-1.60557838233508,-8.97142599089495,0.7,0.69,Ice field gelisol,0.9914111,"None",0,-3.971129,Water,53000000000,5000000000,35000000000,196000000000,54000000000,5000000000,0,42000000000,0,0,0,0,0,0,0,0,0,
DenebDulfim III,DenebDulfim,1.011,G type star,1.047575,12.9015162099349,-1.60557838233508,-8.97142599089495,0,0.58,Barren desert,1,"None",0,-7.975871,None,34000000000,46000000000,33000000000,135000000000,324000000000,0,0,0,0,0,0,0,0,0,0,0,0,
Arided I,Arided,1,G type star,1.001013,7.47916018437108,-1.29629241458319,-22.36480865599,0,0.81,Barren desert,1,"None",0,4.527793,None,33000000000,34000000000,34000000000,154000000000,346000000000,0,0,0,0,0,0,0,0,0,0,0,0,
Arided II,Arided,1,G type star,1.001013,7.47916018437108,-1.29629241458319,-22.36480865599,0.7,0.67,Ice field gelisol,0.9941338,"None",0,5.352735,Water,52000000000,5000000000,54000000000,216000000000,18000000000,5000000000,0,157000000000,0,0,0,0,0,0,0,0,0,
Arided III,Arided,1,G type star,1.001013,7.47916018437108,-1.29629241458319,-22.36480865599,0.8,0.57,Gobi,0.9883914,"None",0,3.400975,None,26000000000,136000000000,195000000000,0,135000000000,62000000000,0,0,0,0,0,0,0,0,0,0,0,
Gemma I,Gemma,1.079,F type star,1.39207,10.0685637242023,-1.5089317518613,-22.6798181964604,0.7,1.41,Lava,0.8559937,"None",0,2.006038,Lava,307000000000,335000000000,39000000000,201000000000,51000000000,20000000000,0,0,0,0,0,0,0,0,0,0,0,
Gemma II,Gemma,1.079,F type star,1.39207,10.0685637242023,-1.5089317518613,-22.6798181964604,0.8,1.26,Volcanic ash,0.9823024,"None",0,2.469121,Sulfuric acid,238000000000,239000000000,38000000000,160000000000,66000000000,6000000000,0,0,0,0,0,0,0,0,0,0,0,
Gemma III,Gemma,1.079,F type star,1.39207,10.0685637242023,-1.5089317518613,-22.6798181964604,0.8,1.11,Gobi,0.9874013,"None",0,6.001635,None,28000000000,181000000000,173000000000,0,174000000000,30000000000,0,0,10000000000,0,0,0,0,0,0,0,0,
Gemma IV,Gemma,1.079,F type star,1.39207,10.0685637242023,-1.5089317518613,-22.6798181964604,1.1,0.93,Ocean world,0.003168238,"None",0,-7.779721,Water,0,0,0,0,0,11000000000,214.837914572738,0,0,0,0,0,102000000000,0,0,0,0,
Zavijava I,Zavijava,1.031,G type star,1.143236,-2.30104050727924,-1.38500810142682,3.93967931153078,0.7,1.2,Lava,0,"None",0,7.969388,Lava,331000000000,297000000000,40000000000,176000000000,63000000000,6999897466,0,0,0,12999473385,0,0,0,0,0,0,0,
Zavijava II,Zavijava,1.031,G type star,1.143236,-2.30104050727924,-1.38500810142682,3.93967931153078,0.8,1.05,Gobi,0.9813619,"None",0,-5.600955,None,9000000000,138000000000,200000000000,0,131000000000,32000000000,0,0,0,10000000000,0,0,0,0,0,0,0,
Zavijava III,Zavijava,1.031,G type star,1.143236,-2.30104050727924,-1.38500810142682,3.93967931153078,1.1,0.85,Prairie,0,"None",0,-7.996826,Water,92000000000,35000000000,124000000000,8000000000,12000000000,129000000000,76.6852380627679,0,0,0,9999956661,0,0,0,0,0,0,
Zavijava IV,Zavijava,1.031,G type star,1.143236,-2.30104050727924,-1.38500810142682,3.93967931153078,0.7,0.44,Ice field gelisol,0.9852231,"LaySide",0,-2.843129,Water,66000000000,4000000000,72000000000,211000000000,55000000000,5000000000,0,156000000000,0,0,0,0,0,0,0,0,0,
Delta Lupi I,Delta Lupi,1.071,F type star,1.362785,-1.78878912327009,-1.74826039306485,5.91976128450853,0.7,1.24,Lava,0,"None",0,0.3524386,Lava,312000000000,308000000000,20999186167,177000000000,66000000000,7000000000,0,0,0,30000000000,0,0,0,0,0,0,0,
Delta Lupi II,Delta Lupi,1.071,F type star,1.362785,-1.78878912327009,-1.74826039306485,5.91976128450853,0,0.91,Gas giant,0,"None",0,-6.465206,None,0,0,0,0,0,0,0,0,0,0,0,0,0,0,0.919318,0.03524287,0,
Delta Lupi III,Delta Lupi,1.071,F type star,1.362785,-1.78878912327009,-1.74826039306485,5.91976128450853,1.1,0.91,Ocean world,0,"None",2,-12.13306,Water,0,0,0,0,0,22000000000,84.9221978546848,0,0,0,0,0,115000000000,0,0,0,0,
Delta Lupi IV,Delta Lupi,1.071,F type star,1.362785,-1.78878912327009,-1.74826039306485,5.91976128450853,0.7,0.65,Ice field gelisol,0.9828222,"None",0,-0.3437112,Water,63000000000,5000000000,34000000000,201000000000,18000000000,4000000000,0,89000000000,0,22000000000,0,0,0,0,0,0,0,
Lambda Lyncis I,Lambda Lyncis,1.058,F type star,1.275422,-10.5108489645217,0.137224498463211,-6.97239022912528,0.7,1.4,Lava,0.8656964,"None",0,7.17348,Lava,339000000000,322000000000,12000000000,180000000000,60000000000,2000000000,0,0,0,0,0,0,0,0,0,0,0,
Lambda Lyncis II,Lambda Lyncis,1.058,F type star,1.275422,-10.5108489645217,0.137224498463211,-6.97239022912528,0.8,1.23,Volcanic ash,0.9905448,"ClockwiseRotate",0,0.5757601,Sulfuric acid,220000000000,228000000000,38000000000,149000000000,39000000000,6000000000,0,0,0,0,0,0,0,0,0,0,0,
Lambda Lyncis III,Lambda Lyncis,1.058,F type star,1.275422,-10.5108489645217,0.137224498463211,-6.97239022912528,1,0.9,Oceanic jungle,0.654761,"None",0,4.248676,Water,72000000000,7000000000,214000000000,0,71000000000,191000000000,127.176076787262,0,0,0,18000000000,0,13000000000,0,0,0,0,
Delta Cygni I,Delta Cygni,1.145,A type star,1.795898,0.321009317307841,-1.80166570856426,7.43363758357325,1.5,1.31,Arid desert,1,"None",0,4.326735,None,45000000000,216000000000,0,113000000000,243000000000,7000000000,0,0,0,0,0,0,0,0,0,0,0,
Delta Cygni II,Delta Cygni,1.145,A type star,1.795898,0.321009317307841,-1.80166570856426,7.43363758357325,0,1.18,Gas giant,0,"None",0,-1.858575,None,0,0,0,0,0,0,0,0,0,0,0,0,0,0,0.9711238,0.04009815,0,
Delta Cygni III,Delta Cygni,1.145,A type star,1.795898,0.321009317307841,-1.80166570856426,7.43363758357325,0.7,1.18,Lava,0.8609936,"None",2,1.563158,Lava,292000000000,337000000000,13000000000,227000000000,36000000000,6000000000,0,0,0,0,0,0,0,0,0,0,0,
Delta Cygni IV,Delta Cygni,1.145,A type star,1.795898,0.321009317307841,-1.80166570856426,7.43363758357325,0.4,0.85,Ashen gelisol,1,"None",0,-0.324886,None,176000000000,20000000000,181000000000,66000000000,122000000000,6000000000,0,11000000000,0,0,0,0,0,0,0,0,0,
Delta Cygni V,Delta Cygni,1.145,A type star,1.795898,0.321009317307841,-1.80166570856426,7.43363758357325,0.7,0.61,Ice field gelisol,0.9883914,"ClockwiseRotate",0,1.043421,Water,53000000000,5000000000,33000000000,239000000000,54000000000,4000000000,0,110000000000,0,0,0,0,0,0,0,0,0,
Menkib I,Menkib,1.02,G type star,1.087778,-6.20253591362176,-1.7869793785317,-6.63847341393628,0.8,1.01,Gobi,0.9850994,"None",0,3.439717,None,9000000000,155000000000,196000000000,0,180000000000,61000000000,0,0,0,0,0,0,0,0,0,0,0,
Menkib II,Menkib,1.02,G type star,1.087778,-6.20253591362176,-1.7869793785317,-6.63847341393628,0,0.7,Ice giant,0,"None",0,-3.664346,None,0,0,0,0,0,0,0,0,0,0,0,0,0,0,0.2774465,0,0.7456328,
Menkib III,Menkib,1.02,G type star,1.087778,-6.20253591362176,-1.7869793785317,-6.63847341393628,0.7,0.7,Ice field gelisol,0.9866092,"None",2,15.63774,Water,64000000000,5000000000,37000000000,218000000000,50000000000,4000000000,0,70000000000,0,0,0,0,0,0,0,0,0,
Dzuba I,Dzuba,0.95,K type star,0.8003377,20.8818934460717,2.20831499318968,-11.8281053482217,1.5,1.01,Arid desert,1,"None",0,-1.52685,None,43000000000,218000000000,0,127000000000,247000000000,7000000000,0,0,0,0,0,0,0,0,0,0,0,
Dzuba II,Dzuba,0.95,K type star,0.8003377,20.8818934460717,2.20831499318968,-11.8281053482217,1,0.83,Red stone,0.6052325,"None",0,0.2911153,Water,61000000000,91000000000,0,0,231000000000,157000000000,147.177516281983,0,0,0,17000000000,0,0,0,0,0,0,
NairalSaif I,NairalSaif,0.972,G type star,0.8866735,23.2237853148602,2.23203045604544,-13.8047881239936,1,0.9,Red stone,0.6415435,"None",0,-3.411394,Water,79000000000,72000000000,0,0,218000000000,134000000000,150.722316192434,0,8000000000,0,40000000000,0,0,0,0,0,0,
NairalSaif II,NairalSaif,0.972,G type star,0.8866735,23.2237853148602,2.23203045604544,-13.8047881239936,0.7,0.74,Ice field gelisol,0.9848518,"None",0,7.057382,Water,66000000000,5000000000,52000000000,222000000000,18000000000,4000000000,0,23000000000,0,0,0,0,0,0,0,0,0,
NairalSaif III,NairalSaif,0.972,G type star,0.8866735,23.2237853148602,2.23203045604544,-13.8047881239936,0,0.61,Barren desert,1,"None",0,-6.998098,None,43000000000,45000000000,24000000000,156000000000,296000000000,0,0,0,14000000000,0,0,0,0,0,0,0,0,
NairalSaif IV,NairalSaif,0.972,G type star,0.8866735,23.2237853148602,2.23203045604544,-13.8047881239936,0.8,0.52,Gobi,0.9785401,"None",0,-0.06820241,None,8000000000,179000000000,193000000000,0,157000000000,28000000000,0,0,0,0,0,0,0,0,0,0,0,
Acubens I,Acubens,0.991,G type star,0.9599859,-0.786524028475946,-4.68025692650095,-4.42397554918636,0.8,0.95,Gobi,0.9841093,"None",0,-7.114984,None,27000000000,136000000000,151000000000,0,175000000000,48000000000,0,0,0,0,0,0,0,0,0,0,0,
Acubens II,Acubens,0.991,G type star,0.9599859,-0.786524028475946,-4.68025692650095,-4.42397554918636,0,0.79,Barren desert,1,"None",0,-4.00001,None,31000000000,20000000000,21000000000,135000000000,323000000000,0,0,31000000000,0,0,0,0,0,0,0,0,0,
Acubens III,Acubens,0.991,G type star,0.9599859,-0.786524028475946,-4.68025692650095,-4.42397554918636,0.7,0.65,Ice field gelisol,0.9784411,"None",0,0.823426,Water,51000000000,4000000000,68000000000,222000000000,54000000000,4000000000,0,134000000000,0,0,0,0,0,0,0,0,0,
Epsilon Columbae I,Epsilon Columbae,0.986,G type star,0.9387636,11.3858829987231,-1.78614556925646,-34.8782361209522,1,0.94,Red stone,0.6327814,"None",0,-3.266201,Water,45000000000,105000000000,0,0,198000000000,149000000000,295.262352541045,0,0,0,16000000000,0,8000000000,0,0,0,0,
Epsilon Columbae II,Epsilon Columbae,0.986,G type star,0.9387636,11.3858829987231,-1.78614556925646,-34.8782361209522,0.4,0.77,Ashen gelisol,1,"None",0,1.641052,None,178000000000,12000000000,156000000000,65000000000,121000000000,7000000000,0,0,0,0,0,0,0,0,0,0,0,
Epsilon Columbae III,Epsilon Columbae,0.986,G type star,0.9387636,11.3858829987231,-1.78614556925646,-34.8782361209522,0,0.64,Barren desert,1,"None",0,-6.460544,None,23000000000,33000000000,44000000000,106000000000,294000000000,0,0,0,0,0,0,0,0,0,0,0,0,
Epsilon Columbae IV,Epsilon Columbae,0.986,G type star,0.9387636,11.3858829987231,-1.78614556925646,-34.8782361209522,0.8,0.54,Gobi,0.9878716,"ClockwiseRotate",0,0.01001585,None,16000000000,129000000000,176000000000,0,154000000000,64000000000,0,0,0,0,0,0,0,0,0,0,0,
Mimosa I,Mimosa,1.131,F type star,1.703038,-2.05789409215472,-5.06191681649239,-1.78813766270216,0.8,1.44,Volcanic ash,0,"LaySide",0,7.980562,Sulfuric acid,210000000000,197000000000,25000000000,127000000000,38000000000,7000000000,0,0,0,0,0,0,0,0,0,0,0,
Mimosa II,Mimosa,1.131,F type star,1.703038,-2.05789409215472,-5.06191681649239,-1.78813766270216,1.5,0.99,Arid desert,1,"None",0,2.016231,None,21000000000,218000000000,0,133000000000,195000000000,7000000000,0,0,0,0,0,0,0,0,0,0,0,
Mimosa III,Mimosa,1.131,F type star,1.703038,-2.05789409215472,-5.06191681649239,-1.78813766270216,0.7,0.71,Ice field gelisol,0.9935398,"None",0,3.915358,Water,77000000000,4000000000,68000000000,190000000000,36000000000,4000000000,0,229000000000,0,0,0,0,0,0,0,0,0,
Mimosa IV,Mimosa,1.131,F type star,1.703038,-2.05789409215472,-5.06191681649239,-1.78813766270216,0.4,0.51,Ashen gelisol,1,"None",0,7.651147,None,151000000000,23000000000,136000000000,43000000000,107000000000,6000000000,0,0,0,0,0,0,0,0,0,0,0,
Alpha Telescopii I,Alpha Telescopii,1.098,F type star,1.500548,-16.3579946658607,-1.30341665527419,-12.7265882455395,0.8,1.42,Volcanic ash,0.9917576,"None",0,5.812719,Sulfuric acid,215000000000,240000000000,28000000000,133000000000,52000000000,7000000000,0,0,0,0,0,0,0,0,0,0,0,
Alpha Telescopii II,Alpha Telescopii,1.098,F type star,1.500548,-16.3579946658607,-1.30341665527419,-12.7265882455395,1.5,1.13,Arid desert,1,"None",0,5.282417,None,22000000000,223000000000,0,133000000000,244000000000,7000000000,0,0,0,0,0,0,0,0,0,0,0,
Alpha Telescopii III,Alpha Telescopii,1.098,F type star,1.500548,-16.3579946658607,-1.30341665527419,-12.7265882455395,0.7,0.57,Ice field gelisol,0.9824262,"None",0,4.925198,Water,81000000000,5000000000,32000000000,249000000000,54000000000,4000000000,0,201000000000,0,0,0,0,0,0,0,0,0,
Gamma Sagittarii I,Gamma Sagittarii,1.057,F type star,1.271982,2.9213008674625,-3.71412980195233,10.8822830854339,0.7,1.4,Lava,0.8568352,"None",0,1.900247,Lava,320000000000,333000000000,28000000000,180000000000,35000000000,20000000000,0,0,0,0,0,0,0,0,0,0,0,
Gamma Sagittarii II,Gamma Sagittarii,1.057,F type star,1.271982,2.9213008674625,-3.71412980195233,10.8822830854339,0.8,1.08,Gobi,0.9899507,"ClockwiseRotate",0,6.737992,None,24000000000,156000000000,158000000000,0,156000000000,64000000000,0,0,0,0,0,0,0,0,0,0,0,
Gamma Sagittarii III,Gamma Sagittarii,1.057,F type star,1.271982,2.9213008674625,-3.71412980195233,10.8822830854339,1,0.89,Red stone,0.5909012,"TidalLocked4",0,7.749218,Water,49000000000,99000000000,0,0,183000000000,144000000000,69.2133182515245,0,0,0,12000000000,0,0,0,0,0,0,
Gamma Sagittarii IV,Gamma Sagittarii,1.057,F type star,1.271982,2.9213008674625,-3.71412980195233,10.8822830854339,0.7,0.74,Ice field gelisol,0.9953219,"None",0,-5.95245,Water,81000000000,4000000000,74000000000,221000000000,55000000000,4000000000,0,282000000000,0,0,0,0,0,0,0,0,0,
Alcyone I,Alcyone,1.144,A type star,1.789117,20.5381301988485,3.19561768136089,-7.42409577161547,0,1.19,Ice giant,0,"None",0,-1.790379,None,0,0,0,0,0,0,0,0,0,0,0,0,0,0,0.4028011,0,0.9222232,
Alcyone II,Alcyone,1.144,A type star,1.789117,20.5381301988485,3.19561768136089,-7.42409577161547,1.5,1.19,Arid desert,1,"None",1,-15.6121,None,32000000000,234000000000,0,154000000000,244000000000,6000000000,0,0,0,0,0,0,0,0,0,0,0,
Alcyone III,Alcyone,1.144,A type star,1.789117,20.5381301988485,3.19561768136089,-7.42409577161547,0,0.85,Gas giant,0,"None",0,4.401141,None,0,0,0,0,0,0,0,0,0,0,0,0,0,0,1.179424,0.05356435,0,
Alcyone IV,Alcyone,1.144,A type star,1.789117,20.5381301988485,3.19561768136089,-7.42409577161547,0,0.85,Barren desert,1,"None",2,-4.973576,None,45000000000,30000000000,36000000000,153000000000,307000000000,0,0,0,0,0,0,0,0,0,0,0,0,
Alcyone V,Alcyone,1.144,A type star,1.789117,20.5381301988485,3.19561768136089,-7.42409577161547,0.7,0.61,Ice field gelisol,0.986931,"None",0,-0.1374857,Water,54000000000,4000000000,32000000000,242000000000,18000000000,4000000000,0,62000000000,0,0,0,0,0,0,0,0,0,
Wasat I,Wasat,1.506,B type star,5.892462,12.2868978665686,-2.49056558849172,-41.8347212271273,0.7,1.51,Lava,0.8691369,"LaySide",0,-1.49158,Lava,280000000000,348000000000,13000000000,166000000000,64000000000,20000000000,0,0,0,0,0,0,0,0,0,0,0,
Wasat II,Wasat,1.506,B type star,5.892462,12.2868978665686,-2.49056558849172,-41.8347212271273,0.8,1.38,Gobi,0.9890844,"None",0,7.033179,None,17000000000,172000000000,169000000000,0,137000000000,62000000000,0,0,6000000000,7000000000,0,0,0,0,0,0,0,
Wasat III,Wasat,1.506,B type star,5.892462,12.2868978665686,-2.49056558849172,-41.8347212271273,0,1.28,Ice giant,0,"None",0,4.866333,None,0,0,0,0,0,0,0,0,0,0,0,0,0,0,0.5188478,0,1.222027,
Wasat IV,Wasat,1.506,B type star,5.892462,12.2868978665686,-2.49056558849172,-41.8347212271273,1.5,1.28,Arid desert,1,"None",3,-0.8124231,None,43000000000,193000000000,0,122000000000,220000000000,7000000000,0,0,0,0,0,0,0,0,0,0,0,
Wasat V,Wasat,1.506,B type star,5.892462,12.2868978665686,-2.49056558849172,-41.8347212271273,0.7,0.71,Ice field gelisol,0.9861142,"None",0,-1.605859,Water,53000000000,4000000000,53000000000,198000000000,18000000000,4000000000,0,91000000000,0,0,0,0,0,0,0,0,0,
Wasat VI,Wasat,1.506,B type star,5.892462,12.2868978665686,-2.49056558849172,-41.8347212271273,0,0.61,Barren desert,1,"None",0,-7.965497,None,36000000000,45000000000,44000000000,106000000000,330000000000,0,0,0,0,0,0,0,0,0,0,0,0,
Alpha Eridani I,Alpha Eridani,1.659,B type star,9.313902,-0.458583025523183,-5.7683923512677,1.87177610905971,0.8,1.51,Volcanic ash,0.99302,"None",0,-7.442475,Sulfuric acid,245000000000,198000000000,39000000000,174000000000,67000000000,6000000000,0,0,0,0,0,0,0,0,0,0,0,
Alpha Eridani II,Alpha Eridani,1.659,B type star,9.313902,-0.458583025523183,-5.7683923512677,1.87177610905971,0.7,1.4,Lava,0.8577015,"None",0,1.242551,Lava,301000000000,349000000000,27000000000,211000000000,57000000000,16000000000,0,0,0,0,0,0,0,0,0,0,0,
Alpha Eridani III,Alpha Eridani,1.659,B type star,9.313902,-0.458583025523183,-5.7683923512677,1.87177610905971,0,1.17,Barren desert,1,"TidalLocked",0,0.06459552,None,44000000000,31000000000,23000000000,150000000000,347000000000,0,0,0,0,0,0,0,0,0,0,0,0,
Alpha Eridani IV,Alpha Eridani,1.659,B type star,9.313902,-0.458583025523183,-5.7683923512677,1.87177610905971,1.5,1.02,Arid desert,1,"None",0,3.829017,None,45000000000,224000000000,0,109000000000,216000000000,6000000000,0,0,0,0,0,0,0,0,0,0,0,
Alpha Eridani V,Alpha Eridani,1.659,B type star,9.313902,-0.458583025523183,-5.7683923512677,1.87177610905971,0.4,0.87,Ashen gelisol,1,"None",0,-4.093663,None,179000000000,33000000000,178000000000,89000000000,125000000000,7000000000,0,0,0,7000000000,0,0,0,0,0,0,0,
Merope I,Merope,1.213,A type star,2.305233,0.768119542156915,-2.59335392353323,4.1313429376789,0.8,1.34,Volcanic ash,0.9846538,"None",0,1.265611,Sulfuric acid,243000000000,222000000000,27000000000,126000000000,54000000000,7000000000,0,0,0,0,0,0,0,0,0,0,0,
Merope II,Merope,1.213,A type star,2.305233,0.768119542156915,-2.59335392353323,4.1313429376789,0,0.91,Barren desert,1,"None",0,0.8146118,None,31000000000,23000000000,22000000000,135000000000,319000000000,0,0,0,0,0,0,0,0,0,0,0,0,
Merope III,Merope,1.213,A type star,2.305233,0.768119542156915,-2.59335392353323,4.1313429376789,0.7,0.77,Ice field gelisol,0.9907923,"None",0,0.6009807,Water,63000000000,4000000000,51000000000,239000000000,35000000000,5000000000,0,66000000000,0,0,0,0,0,0,0,0,0,
Theta Aquilae I,Theta Aquilae,1.44,B type star,4.853841,20.81562319647,2.96129957447043,-2.91757475415567,0.7,1.5,Lava,0.8467612,"TidalLocked",0,-1.72123,Lava,329000000000,301000000000,12000000000,223000000000,49000000000,21000000000,0,0,0,43000000000,0,0,0,0,0,0,0,
Theta Aquilae II,Theta Aquilae,1.44,B type star,4.853841,20.81562319647,2.96129957447043,-2.91757475415567,0.8,1.38,Volcanic ash,0.9764857,"None",0,-3.404984,Sulfuric acid,233000000000,213000000000,27000000000,117000000000,41000000000,7000000000,0,0,0,0,0,0,0,0,0,0,0,
Theta Aquilae III,Theta Aquilae,1.44,B type star,4.853841,20.81562319647,2.96129957447043,-2.91757475415567,1.5,1.14,Arid desert,1,"None",0,6.94617,None,34000000000,243000000000,0,115000000000,239000000000,7000000000,0,0,0,0,0,0,0,0,0,0,0,
Theta Aquilae IV,Theta Aquilae,1.44,B type star,4.853841,20.81562319647,2.96129957447043,-2.91757475415567,1.1,0.98,Ocean world,0.002202916,"None",0,-6.687654,Water,0,0,0,0,0,10000000000,208.918714722269,0,0,0,0,0,88000000000,0,0,0,0,
Theta Aquilae V,Theta Aquilae,1.44,B type star,4.853841,20.81562319647,2.96129957447043,-2.91757475415567,0.4,0.83,Ashen gelisol,1,"None",0,5.302156,None,161000000000,23000000000,175000000000,87000000000,107000000000,7000000000,0,17000000000,0,0,0,0,0,0,0,0,0,
Theta Aquilae VI,Theta Aquilae,1.44,B type star,4.853841,20.81562319647,2.96129957447043,-2.91757475415567,0.7,0.6,Ice field gelisol,0.9896785,"None",0,3.956955,Water,54000000000,5000000000,71000000000,222000000000,56000000000,4000000000,0,88000000000,0,0,0,0,0,0,0,0,0,
Atik I,Atik,1.66,B type star,8.968104,13.3663455055556,-2.73438588320718,-43.9831482716795,0.7,1.52,Lava,0.8699042,"None",0,5.560049,Lava,338000000000,277000000000,25000000000,186000000000,53000000000,14000000000,0,0,0,0,0,0,0,0,0,0,0,
Atik II,Atik,1.66,B type star,8.968104,13.3663455055556,-2.73438588320718,-43.9831482716795,0.8,1.29,Volcanic ash,0.9893072,"None",0,-0.6443239,Sulfuric acid,200000000000,226000000000,39000000000,181000000000,67000000000,7000000000,0,0,0,0,0,0,0,0,0,0,0,
Atik III,Atik,1.66,B type star,8.968104,13.3663455055556,-2.73438588320718,-43.9831482716795,0.8,1.17,Gobi,0.9862627,"None",0,4.364923,None,18000000000,180000000000,177000000000,0,180000000000,48000000000,0,0,0,0,0,0,0,0,0,0,0,
Atik IV,Atik,1.66,B type star,8.968104,13.3663455055556,-2.73438588320718,-43.9831482716795,1.5,1.03,Arid desert,1,"None",0,-0.9437043,None,20000000000,240000000000,0,130000000000,247000000000,7000000000,0,0,0,0,0,0,0,0,0,0,0,
Atik V,Atik,1.66,B type star,8.968104,13.3663455055556,-2.73438588320718,-43.9831482716795,0,0.74,Gas giant,0,"None",0,-3.266238,None,0,0,0,0,0,0,0,0,0,0,0,0,0,0,1.59451,0.07198953,0,
Atik VI,Atik,1.66,B type star,8.968104,13.3663455055556,-2.73438588320718,-43.9831482716795,0,0.74,Barren desert,1,"None",5,-2.520526,None,41000000000,48000000000,36000000000,157000000000,287000000000,0,0,0,0,0,0,0,0,0,0,0,0,
Bellatrix I,Bellatrix,1.421,B type star,4.5717,-2.17668872809231,-3.83179491531266,15.3797497187178,1.5,1.5,Arid desert,1,"None",0,-3.934376,None,43000000000,195000000000,0,106000000000,200000000000,7000000000,0,0,0,0,0,0,0,0,0,0,0,
Bellatrix II,Bellatrix,1.421,B type star,4.5717,-2.17668872809231,-3.83179491531266,15.3797497187178,0,1.27,Gas giant,0,"None",0,-1.728468,None,0,0,0,0,0,0,0,0,0,0,0,0,0,0,1.110637,0.04776888,0,
Bellatrix III,Bellatrix,1.421,B type star,4.5717,-2.17668872809231,-3.83179491531266,15.3797497187178,0.7,1.27,Lava,0.8871068,"None",2,-16.03852,Lava,338000000000,337000000000,14000000000,195000000000,54000000000,14000000000,0,0,0,0,0,0,0,0,0,0,0,
Bellatrix IV,Bellatrix,1.421,B type star,4.5717,-2.17668872809231,-3.83179491531266,15.3797497187178,1.1,0.97,Prairie,0.8569095,"None",0,-1.495676,Water,118000000000,40000000000,118000000000,8000000000,12000000000,150000000000,153.245276128699,0,0,0,20000000000,0,47000000000,0,0,0,0,
Bellatrix V,Bellatrix,1.421,B type star,4.5717,-2.17668872809231,-3.83179491531266,15.3797497187178,0.7,0.82,Ice field gelisol,0.9874013,"None",0,-2.07293,Water,79000000000,4000000000,50000000000,241000000000,19000000000,5000000000,0,90000000000,0,4000000000,0,0,0,0,0,0,0,
Bellatrix VI,Bellatrix,1.421,B type star,4.5717,-2.17668872809231,-3.83179491531266,15.3797497187178,0.4,0.69,Ashen gelisol,1,"None",0,7.092659,None,177000000000,31000000000,133000000000,42000000000,135000000000,7000000000,0,0,0,0,0,0,0,0,0,0,0,
Eta Volantis I,Eta Volantis,1.566,B type star,6.979392,3.81483973342536,-6.34707384651575,-3.4470094401914,0.8,1.5,Volcanic ash,0.9824757,"TidalLocked2",0,5.939575,Sulfuric acid,242000000000,194000000000,28000000000,158000000000,51000000000,7000000000,0,0,0,0,0,0,0,0,0,0,0,
Eta Volantis II,Eta Volantis,1.566,B type star,6.979392,3.81483973342536,-6.34707384651575,-3.4470094401914,0.7,1.38,Lava,0.8519838,"None",0,-0.3117578,Lava,274000000000,292000000000,25000000000,178000000000,57000000000,12000000000,0,0,0,0,0,0,0,0,0,0,0,
Eta Volantis III,Eta Volantis,1.566,B type star,6.979392,3.81483973342536,-6.34707384651575,-3.4470094401914,0.8,1.28,Gobi,0.983738,"None",0,-0.7298896,None,10000000000,136000000000,151000000000,0,173000000000,59000000000,0,0,0,0,0,0,0,0,0,0,0,
Eta Volantis IV,Eta Volantis,1.566,B type star,6.979392,3.81483973342536,-6.34707384651575,-3.4470094401914,1.5,1.16,Arid desert,1,"None",0,-0.7539716,None,22000000000,239000000000,0,112000000000,224000000000,7000000000,0,0,0,0,0,0,0,0,0,0,0,
Eltanin I,Eltanin,1.519,B type star,6.113242,-3.57980448290872,-3.56387076898796,19.3484378391372,0.7,1.38,Lava,0.8566372,"None",0,2.261174,Lava,312000000000,329000000000,24000000000,182000000000,50000000000,7000000000,0,0,0,0,0,0,0,0,0,0,0,
Eltanin II,Eltanin,1.519,B type star,6.113242,-3.57980448290872,-3.56387076898796,19.3484378391372,0.8,1.28,Gobi,0.9906685,"None",0,-4.603132,None,8000000000,135000000000,174000000000,0,132000000000,47000000000,0,0,0,0,0,0,0,0,0,0,0,
Eltanin III,Eltanin,1.519,B type star,6.113242,-3.57980448290872,-3.56387076898796,19.3484378391372,0,1.15,Gas giant,0,"MultipleSatellites",0,1.031098,None,0,0,0,0,0,0,0,0,0,0,0,0,0,0,1.088794,0.04817843,0,
Eltanin IV,Eltanin,1.519,B type star,6.113242,-3.57980448290872,-3.56387076898796,19.3484378391372,1.5,1.15,Arid desert,1,"ClockwiseRotate",3,2.653988,None,34000000000,229000000000,0,106000000000,201000000000,7000000000,0,0,3000000000,0,0,0,0,0,0,0,0,
Eltanin V,Eltanin,1.519,B type star,6.113242,-3.57980448290872,-3.56387076898796,19.3484378391372,0.4,1.15,Ashen gelisol,1,"None",3,-15.54995,None,135000000000,10000000000,126000000000,68000000000,118000000000,7000000000,0,0,0,0,0,0,0,0,0,0,0,
Celaeno I,Celaeno,1.475,B type star,5.380832,-18.2694531887062,2.92244387837161,-1.53276015920216,0.7,1.5,Lava,0.8410435,"None",0,5.787754,Lava,298000000000,306000000000,37000000000,200000000000,65000000000,19000000000,0,0,0,0,0,0,0,0,0,0,0,
Celaeno II,Celaeno,1.475,B type star,5.380832,-18.2694531887062,2.92244387837161,-1.53276015920216,0.8,1.38,Volcanic ash,0.989629,"None",0,3.158301,Sulfuric acid,199000000000,212000000000,13000000000,128000000000,55000000000,7000000000,0,0,0,0,0,0,0,0,0,0,0,
Celaeno III,Celaeno,1.475,B type star,5.380832,-18.2694531887062,2.92244387837161,-1.53276015920216,0,1.27,Barren desert,1,"None",0,4.744161,None,42000000000,34000000000,22000000000,135000000000,343000000000,0,0,19000000000,0,0,0,0,0,0,0,0,0,
Celaeno IV,Celaeno,1.475,B type star,5.380832,-18.2694531887062,2.92244387837161,-1.53276015920216,1,0.98,Oceanic jungle,0.6244152,"None",0,3.758993,Water,93000000000,20000000000,238000000000,0,55000000000,245000000000,172.549115641043,0,0,0,23000000000,0,0,0,0,0,0,
Celaeno V,Celaeno,1.475,B type star,5.380832,-18.2694531887062,2.92244387837161,-1.53276015920216,0.4,0.83,Ashen gelisol,1,"None",0,4.445408,None,173000000000,24000000000,180000000000,66000000000,126000000000,6000000000,0,0,0,0,0,0,0,0,0,0,0,
V669 Cassiopeiae I,V669 Cassiopeiae,0.932,Red giant,0.3815893,27.9162188026856,2.53291200755211,4.80883033052356,0,1.55,Ice giant,0,"None",0,-1.353181,None,0,0,0,0,0,0,0,0,0,0,0,0,0,0,0.4626171,0,1.074672,
V669 Cassiopeiae II,V669 Cassiopeiae,0.932,Red giant,0.3815893,27.9162188026856,2.53291200755211,4.80883033052356,1.5,1.55,Arid desert,1,"None",1,-3.448797,None,21000000000,221000000000,0,104000000000,197000000000,7000000000,0,0,0,0,0,0,0,0,0,0,0,
Alshain I,Alshain,1.515,B type star,6.05354,7.63043846057442,-8.36822164628629,-4.51907246463699,0.7,1.5,Lava,0.8681716,"LaySide",0,-3.965235,Lava,336000000000,331000000000,14000000000,160000000000,38000000000,13000000000,0,0,0,0,0,0,0,0,0,0,0,
Alshain II,Alshain,1.515,B type star,6.05354,7.63043846057442,-8.36822164628629,-4.51907246463699,0.8,1.38,Volcanic ash,0.9821539,"None",0,-5.493693,Sulfuric acid,239000000000,205000000000,38000000000,184000000000,66000000000,6000000000,0,0,0,0,0,0,0,0,0,0,0,
Alshain III,Alshain,1.515,B type star,6.05354,7.63043846057442,-8.36822164628629,-4.51907246463699,0,1.28,Barren desert,1,"None",0,-3.1954,None,23000000000,34000000000,33000000000,134000000000,340000000000,0,0,0,25000000000,0,0,0,0,0,0,0,0,
Alshain IV,Alshain,1.515,B type star,6.05354,7.63043846057442,-8.36822164628629,-4.51907246463699,0.8,1.15,Gobi,0.9848518,"None",0,3.913019,None,18000000000,132000000000,175000000000,0,134000000000,50000000000,0,0,0,0,0,0,0,0,0,0,0,
Alshain V,Alshain,1.515,B type star,6.05354,7.63043846057442,-8.36822164628629,-4.51907246463699,0.4,0.71,Ashen gelisol,1,"None",0,-6.216157,None,155000000000,24000000000,126000000000,63000000000,135000000000,7000000000,0,5000000000,0,0,0,0,0,0,0,0,0,
γ Canis Majoris I,γ Canis Majoris,1.74,B type star,10.99458,-18.7520507694214,2.86131783872591,3.47682799823331,1.5,1.52,Arid desert,1,"TidalLocked4",0,-6.428056,None,44000000000,254000000000,0,129000000000,229000000000,7000000000,0,0,0,0,0,0,0,0,0,0,0,
γ Canis Majoris II,γ Canis Majoris,1.74,B type star,10.99458,-18.7520507694214,2.86131783872591,3.47682799823331,0.7,1.4,Lava,0.8671815,"None",0,-6.989041,Lava,335000000000,311000000000,24000000000,174000000000,66000000000,19000000000,0,0,0,0,0,0,0,0,0,0,0,
γ Canis Majoris III,γ Canis Majoris,1.74,B type star,10.99458,-18.7520507694214,2.86131783872591,3.47682799823331,0.8,1.19,Gobi,0.9786887,"TidalLocked2",0,4.801006,None,18000000000,137000000000,203000000000,0,174000000000,64000000000,0,0,0,0,0,0,0,0,0,0,0,
γ Canis Majoris IV,γ Canis Majoris,1.74,B type star,10.99458,-18.7520507694214,2.86131783872591,3.47682799823331,0,1.04,Barren desert,1,"None",0,5.389168,None,34000000000,33000000000,22000000000,112000000000,348000000000,0,0,0,0,0,0,0,0,0,0,0,0,
ε Leonis Minoris I,ε Leonis Minoris,1.626,B type star,8.20696,10.4688144393969,-5.93005005435043,-0.732769731191758,0,1.29,Gas giant,0,"None",0,-3.407915,None,0,0,0,0,0,0,0,0,0,0,0,0,0,0,1.088814,0.04394881,0,
ε Leonis Minoris II,ε Leonis Minoris,1.626,B type star,8.20696,10.4688144393969,-5.93005005435043,-0.732769731191758,0.8,1.29,Gobi,0.9893814,"None",1,-4.772783,None,27000000000,133000000000,196000000000,0,178000000000,33000000000,0,0,32000000000,0,0,0,0,0,0,0,0,
ε Leonis Minoris III,ε Leonis Minoris,1.626,B type star,8.20696,10.4688144393969,-5.93005005435043,-0.732769731191758,0,1.02,Gas giant,0,"None",0,3.147584,None,0,0,0,0,0,0,0,0,0,0,0,0,0,0,1.013431,0.04126149,0,
ε Leonis Minoris IV,ε Leonis Minoris,1.626,B type star,8.20696,10.4688144393969,-5.93005005435043,-0.732769731191758,1.5,1.02,Arid desert,1,"None",2,14.20873,None,21000000000,239000000000,0,107000000000,244000000000,7000000000,0,0,0,0,0,0,0,0,0,0,0,
ε Leonis Minoris V,ε Leonis Minoris,1.626,B type star,8.20696,10.4688144393969,-5.93005005435043,-0.732769731191758,0.7,0.62,Ice field gelisol,0.9888864,"None",0,0.5372263,Water,66000000000,4000000000,35000000000,203000000000,54000000000,4000000000,0,131000000000,0,0,0,0,0,0,0,0,0,
Alchiba I,Alchiba,1.923,B type star,17.04548,-22.6290332900166,4.3363016351793,1.32594967677006,0.8,1.42,Volcanic ash,0.9877478,"None",0,-4.475104,Sulfuric acid,192000000000,216000000000,39000000000,148000000000,55000000000,6000000000,0,0,0,0,0,0,0,0,0,0,0,
Alchiba II,Alchiba,1.923,B type star,17.04548,-22.6290332900166,4.3363016351793,1.32594967677006,0.7,1.33,Lava,0.8546323,"None",0,7.046453,Lava,289000000000,319000000000,38000000000,203000000000,39000000000,19000000000,0,0,0,0,0,0,0,0,0,0,0,
Alchiba III,Alchiba,1.923,B type star,17.04548,-22.6290332900166,4.3363016351793,1.32594967677006,0.8,1.21,Gobi,0.9937626,"LaySide",0,5.718082,None,26000000000,177000000000,206000000000,0,176000000000,63000000000,0,0,0,0,0,0,0,0,0,0,0,
Alchiba IV,Alchiba,1.923,B type star,17.04548,-22.6290332900166,4.3363016351793,1.32594967677006,1.5,1.07,Arid desert,1,"None",0,6.791612,None,45000000000,222000000000,0,109000000000,248000000000,7000000000,0,0,0,0,0,0,0,0,0,0,0,
Arneb I,Arneb,1.648,B type star,8.700343,8.34920373339953,-3.34126977868087,0.226079737173183,0.8,1.17,Gobi,0.9928219,"None",0,-2.502473,None,25000000000,128000000000,157000000000,0,154000000000,31000000000,0,0,0,0,0,0,0,0,0,0,0,
Arneb II,Arneb,1.648,B type star,8.700343,8.34920373339953,-3.34126977868087,0.226079737173183,0,0.87,Gas giant,0,"None",0,4.370571,None,0,0,0,0,0,0,0,0,0,0,0,0,0,0,0.9602841,0.04190272,0,
Arneb III,Arneb,1.648,B type star,8.700343,8.34920373339953,-3.34126977868087,0.226079737173183,0,0.87,Barren desert,1,"None",2,-0.6832812,None,34000000000,21000000000,44000000000,137000000000,339000000000,0,0,0,0,0,0,0,0,0,0,0,0,
Arneb IV,Arneb,1.648,B type star,8.700343,8.34920373339953,-3.34126977868087,0.226079737173183,0.7,0.63,Ice field gelisol,0.9936635,"None",0,-6.784931,Water,53000000000,5000000000,36000000000,242000000000,35000000000,5000000000,0,45000000000,0,4000000000,0,4000000000,0,0,0,0,0,
Suhel I,Suhel,1.689,B type star,9.710646,6.27699593952965,-3.15061944299115,-2.15758253447629,0.8,1.52,Volcanic ash,0.9952229,"None",0,4.897122,Sulfuric acid,219000000000,237000000000,12000000000,157000000000,67000000000,6000000000,0,0,0,0,0,0,0,0,0,0,0,
Suhel II,Suhel,1.689,B type star,9.710646,6.27699593952965,-3.15061944299115,-2.15758253447629,0.7,1.3,Lava,0.8699785,"None",0,-1.710477,Lava,322000000000,309000000000,40000000000,209000000000,40000000000,17000000000,0,0,0,0,0,0,0,0,0,0,0,
Suhel III,Suhel,1.689,B type star,9.710646,6.27699593952965,-3.15061944299115,-2.15758253447629,0,1.18,Ice giant,0,"None",0,3.834406,None,0,0,0,0,0,0,0,0,0,0,0,0,0,0,0.3208027,0,0.7406901,
Suhel IV,Suhel,1.689,B type star,9.710646,6.27699593952965,-3.15061944299115,-2.15758253447629,1.5,1.18,Arid desert,1,"None",3,12.10634,None,31000000000,216000000000,0,112000000000,224000000000,6000000000,0,0,0,0,0,0,0,0,0,0,0,
32 Aquilae I,32 Aquilae,1.554,B type star,6.740914,34.3408552601522,0.788290668190756,1.92516991461744,0.8,1.5,Volcanic ash,0.9923022,"None",0,-5.958918,Sulfuric acid,211000000000,242000000000,13000000000,180000000000,37000000000,7000000000,0,0,0,0,0,0,0,0,0,0,0,
32 Aquilae II,32 Aquilae,1.554,B type star,6.740914,34.3408552601522,0.788290668190756,1.92516991461744,0.7,1.38,Lava,0.8653004,"None",0,7.248653,Lava,320000000000,297000000000,39000000000,211000000000,35000000000,7000000000,0,0,0,0,0,0,0,0,0,0,0,
32 Aquilae III,32 Aquilae,1.554,B type star,6.740914,34.3408552601522,0.788290668190756,1.92516991461744,1.5,1.28,Arid desert,1,"None",0,-4.890994,None,45000000000,219000000000,0,112000000000,244000000000,6000000000,0,0,0,0,0,0,0,0,0,0,0,
32 Aquilae IV,32 Aquilae,1.554,B type star,6.740914,34.3408552601522,0.788290668190756,1.92516991461744,0,1,Barren desert,1,"None",0,-2.117862,None,21000000000,20000000000,45000000000,112000000000,312000000000,0,0,0,0,0,0,0,0,0,0,0,0,
Lambda Reticuli I,Lambda Reticuli,1.764,B type star,11.6792,-12.4745338119099,-2.38262896713671,23.7791727580702,0.8,1.52,Gobi,0.9967822,"None",0,-7.719959,None,9000000000,167000000000,153000000000,0,152000000000,59000000000,0,0,0,0,0,0,0,0,0,0,0,
Lambda Reticuli II,Lambda Reticuli,1.764,B type star,11.6792,-12.4745338119099,-2.38262896713671,23.7791727580702,0.8,1.4,Volcanic ash,0.9944803,"None",0,4.346779,Sulfuric acid,229000000000,191000000000,28000000000,127000000000,51000000000,6000000000,0,0,0,0,0,0,0,0,0,0,0,
Lambda Reticuli III,Lambda Reticuli,1.764,B type star,11.6792,-12.4745338119099,-2.38262896713671,23.7791727580702,0,1.19,Ice giant,0,"None",0,-3.247092,None,0,0,0,0,0,0,0,0,0,0,0,0,0,0,0.4364873,0,0.8978159,
Lambda Reticuli IV,Lambda Reticuli,1.764,B type star,11.6792,-12.4745338119099,-2.38262896713671,23.7791727580702,1.5,1.19,Arid desert,1,"None",3,14.23245,None,22000000000,220000000000,0,115000000000,219000000000,7000000000,0,0,0,0,0,0,0,0,0,0,0,
Lambda Reticuli V,Lambda Reticuli,1.764,B type star,11.6792,-12.4745338119099,-2.38262896713671,23.7791727580702,0,0.89,Barren desert,1,"None",0,-4.224209,None,43000000000,30000000000,44000000000,152000000000,285000000000,0,0,0,0,0,0,6000000000,0,0,0,0,0,
Lambda Reticuli VI,Lambda Reticuli,1.764,B type star,11.6792,-12.4745338119099,-2.38262896713671,23.7791727580702,0.4,0.75,Ashen gelisol,1,"None",0,-5.160129,None,133000000000,22000000000,172000000000,66000000000,137000000000,7000000000,0,16000000000,0,0,0,0,0,0,0,0,0,
DenebAlgedi I,DenebAlgedi,1.556,B type star,6.780651,7.32186251451395,-5.68880303106652,-3.18422293694377,0.8,1.5,Volcanic ash,0.9854459,"None",0,7.545158,Sulfuric acid,193000000000,193000000000,40000000000,160000000000,42000000000,6000000000,0,0,0,0,0,0,0,0,0,0,0,
DenebAlgedi II,DenebAlgedi,1.556,B type star,6.780651,7.32186251451395,-5.68880303106652,-3.18422293694377,0.7,1.38,Lava,0.8633697,"None",0,-3.288625,Lava,300000000000,291000000000,40000000000,201000000000,63000000000,13000000000,0,0,0,0,0,0,0,0,0,0,0,
DenebAlgedi III,DenebAlgedi,1.556,B type star,6.780651,7.32186251451395,-5.68880303106652,-3.18422293694377,0.8,1.28,Gobi,0.9891092,"None",0,-1.711527,None,28000000000,131000000000,199000000000,0,179000000000,51000000000,0,0,0,0,0,0,0,0,0,0,0,
DenebAlgedi IV,DenebAlgedi,1.556,B type star,6.780651,7.32186251451395,-5.68880303106652,-3.18422293694377,1.5,1.15,Arid desert,1,"None",0,1.879892,None,23000000000,198000000000,0,153000000000,220000000000,7000000000,0,0,0,0,0,0,0,0,0,0,0,
DenebAlgedi V,DenebAlgedi,1.556,B type star,6.780651,7.32186251451395,-5.68880303106652,-3.18422293694377,0,0.85,Barren desert,1,"None",0,-7.336778,None,32000000000,32000000000,46000000000,148000000000,291000000000,0,0,0,0,0,0,0,0,0,0,0,0,
Alfirk I,Alfirk,1.898,B type star,16.02431,7.85887359900929,-5.46593999796678,-5.58546894091372,0.7,1.53,Lava,0.8764882,"None",0,6.607821,Lava,323000000000,293000000000,37000000000,208000000000,62000000000,13000000000,0,0,0,0,0,0,0,0,0,0,0,
Alfirk II,Alfirk,1.898,B type star,16.02431,7.85887359900929,-5.46593999796678,-5.58546894091372,0.8,1.41,Volcanic ash,0.9923517,"None",0,0.2047606,Sulfuric acid,215000000000,210000000000,27000000000,178000000000,41000000000,7000000000,0,0,0,0,0,0,0,0,0,0,0,
Alfirk III,Alfirk,1.898,B type star,16.02431,7.85887359900929,-5.46593999796678,-5.58546894091372,0,1.32,Gas giant,0,"None",0,-1.019731,None,0,0,0,0,0,0,0,0,0,0,0,0,0,0,1.105537,0.043222,0,
Alfirk IV,Alfirk,1.898,B type star,16.02431,7.85887359900929,-5.46593999796678,-5.58546894091372,0.4,1.32,Ashen gelisol,1,"None",3,-13.14283,None,151000000000,20000000000,135000000000,44000000000,103000000000,7000000000,0,0,0,0,0,0,0,0,0,0,0,
Alfirk V,Alfirk,1.898,B type star,16.02431,7.85887359900929,-5.46593999796678,-5.58546894091372,1.5,1.07,Arid desert,1,"None",0,-4.83451,None,30000000000,193000000000,0,151000000000,247000000000,6000000000,0,0,0,0,0,0,0,0,0,0,0,
Alfirk VI,Alfirk,1.898,B type star,16.02431,7.85887359900929,-5.46593999796678,-5.58546894091372,0,0.77,Barren desert,1,"None",0,-6.919816,None,44000000000,43000000000,36000000000,138000000000,289000000000,0,0,0,0,0,0,0,0,0,0,0,0,
Eta Pegasi I,Eta Pegasi,2.044,O type star,22.11087,4.18373320515795,-3.69514805318038,-5.5051389843271,0.8,1.43,Volcanic ash,0,"None",0,-7.417325,Sulfuric acid,230000000000,199000000000,39000000000,125000000000,67000000000,6000000000,0,0,0,0,0,0,0,0,0,0,0,
Eta Pegasi II,Eta Pegasi,2.044,O type star,22.11087,4.18373320515795,-3.69514805318038,-5.5051389843271,1.5,1.33,Arid desert,0,"None",0,-2.172607,None,19999999994,234000000000,0,113000000000,220000000000,6000000000,0,0,9999934248,0,0,0,0,0,0,0,0,
Eta Pegasi III,Eta Pegasi,2.044,O type star,22.11087,4.18373320515795,-3.69514805318038,-5.5051389843271,0.8,1.22,Gobi,0,"None",0,3.188061,None,10000000000,171000000000,195000000000,0,175000000000,46000000000,0,0,0,0,0,0,0,0,0,0,0,
Eta Pegasi IV,Eta Pegasi,2.044,O type star,22.11087,4.18373320515795,-3.69514805318038,-5.5051389843271,0,1.09,Barren desert,1,"None",0,7.630054,None,44000000000,44000000000,33000000000,108000000000,287000000000,0,0,15000000000,0,0,0,0,0,0,0,0,0,
Eta Pegasi V,Eta Pegasi,2.044,O type star,22.11087,4.18373320515795,-3.69514805318038,-5.5051389843271,0.4,0.94,Ashen gelisol,1,"None",0,2.948493,None,171000000000,32000000000,137000000000,67000000000,108000000000,7000000000,0,0,0,0,0,0,0,0,0,0,0,
Eta Apodis I,Eta Apodis,1.639,B type star,8.493389,18.0045733875321,-2.33226549802332,-48.0238895493133,0.8,1.51,Volcanic ash,0.9783669,"None",0,-7.067365,Sulfuric acid,196000000000,178000000000,25000000000,168000000000,39000000000,7000000000,0,0,0,0,0,0,0,0,0,0,0,
Eta Apodis II,Eta Apodis,1.639,B type star,8.493389,18.0045733875321,-2.33226549802332,-48.0238895493133,0.7,1.39,Lava,0.8697062,"None",0,0.1910443,Lava,316000000000,324000000000,38000000000,210000000000,42000000000,13000000000,0,0,0,0,0,0,0,0,0,0,0,
Eta Apodis III,Eta Apodis,1.639,B type star,8.493389,18.0045733875321,-2.33226549802332,-48.0238895493133,0.8,1.17,Gobi,0.9798768,"None",0,4.895231,None,8000000000,177000000000,176000000000,0,151000000000,32000000000,0,0,0,0,0,0,0,0,0,0,0,
Eta Apodis IV,Eta Apodis,1.639,B type star,8.493389,18.0045733875321,-2.33226549802332,-48.0238895493133,0,1.02,Ice giant,0,"None",0,7.216558,None,0,0,0,0,0,0,0,0,0,0,0,0,0,0,0.584005,0,1.324952,
Eta Apodis V,Eta Apodis,1.639,B type star,8.493389,18.0045733875321,-2.33226549802332,-48.0238895493133,1.5,1.02,Arid desert,1,"None",4,-1.903934,None,43000000000,250000000000,0,155000000000,199000000000,7000000000,0,0,0,0,0,0,0,0,0,0,0,
Eta Apodis VI,Eta Apodis,1.639,B type star,8.493389,18.0045733875321,-2.33226549802332,-48.0238895493133,0.4,0.73,Ashen gelisol,1,"None",0,5.878314,None,179000000000,33000000000,153000000000,87000000000,118000000000,6000000000,0,33000000000,0,0,0,0,0,0,0,0,0,
Theta Horologii I,Theta Horologii,1.75,B type star,11.27589,9.18613206688101,-5.20175771717647,-9.90719098229119,0.8,1.4,Volcanic ash,0.9879211,"None",0,6.236249,Sulfuric acid,214000000000,250000000000,25000000000,179000000000,51000000000,6000000000,0,0,0,0,0,0,0,0,0,0,0,
Theta Horologii II,Theta Horologii,1.75,B type star,11.27589,9.18613206688101,-5.20175771717647,-9.90719098229119,0.8,1.19,Gobi,0.9921536,"None",0,-2.780751,None,18000000000,183000000000,151000000000,0,155000000000,59000000000,0,0,0,0,0,6000000000,0,0,0,0,0,
Theta Horologii III,Theta Horologii,1.75,B type star,11.27589,9.18613206688101,-5.20175771717647,-9.90719098229119,0,1.04,Ice giant,0,"None",0,1.522386,None,0,0,0,0,0,0,0,0,0,0,0,0,0,0,0.3274218,0,0.7904868,
Theta Horologii IV,Theta Horologii,1.75,B type star,11.27589,9.18613206688101,-5.20175771717647,-9.90719098229119,1.5,1.04,Arid desert,1,"None",3,12.45452,None,44000000000,244000000000,0,155000000000,241000000000,6000000000,0,0,0,0,0,0,0,0,0,0,0,
Sadalbari I,Sadalbari,1.778,B type star,12.08734,11.2418135860164,-5.58639275871467,-7.83390677982119,0.7,1.31,Lava,0.8593352,"None",0,-0.8757163,Lava,342000000000,344000000000,34000000000,184000000000,53000000000,13000000000,0,0,0,8000000000,0,0,0,0,0,0,0,
Sadalbari II,Sadalbari,1.778,B type star,12.08734,11.2418135860164,-5.58639275871467,-7.83390677982119,1.5,1.19,Arid desert,1,"None",0,4.131546,None,22000000000,194000000000,0,131000000000,243000000000,6000000000,0,0,0,0,0,0,0,0,0,0,0,
Sadalbari III,Sadalbari,1.778,B type star,12.08734,11.2418135860164,-5.58639275871467,-7.83390677982119,0.8,1.05,Gobi,0.9875003,"None",0,-3.316537,None,16000000000,133000000000,194000000000,0,180000000000,65000000000,0,0,0,0,0,0,0,0,0,0,0,
Sadalbari IV,Sadalbari,1.778,B type star,12.08734,11.2418135860164,-5.58639275871467,-7.83390677982119,0.7,0.76,Ice field gelisol,0.9845796,"None",0,2.152346,Water,53000000000,5000000000,52000000000,240000000000,18000000000,5000000000,0,43000000000,0,0,0,0,0,0,0,0,0,
Sadalbari V,Sadalbari,1.778,B type star,12.08734,11.2418135860164,-5.58639275871467,-7.83390677982119,0,0.65,Barren desert,1,"None",0,1.435422,None,45000000000,34000000000,35000000000,130000000000,337000000000,0,0,0,0,0,0,0,0,0,0,0,0,
Dziban I,Dziban,1.59,B type star,7.454246,17.2196319263879,-1.78898158285248,-45.8421458437546,0.7,1.51,Lava,0.8441623,"None",0,6.4134,Lava,322000000000,292000000000,13000000000,190000000000,41000000000,12000000000,0,0,0,0,0,0,0,0,0,0,0,
Dziban II,Dziban,1.59,B type star,7.454246,17.2196319263879,-1.78898158285248,-45.8421458437546,0.8,1.39,Volcanic ash,0.9882924,"None",0,1.329711,Sulfuric acid,226000000000,209000000000,14000000000,182000000000,62000000000,7000000000,0,0,0,0,0,0,0,0,0,0,0,
Dziban III,Dziban,1.59,B type star,7.454246,17.2196319263879,-1.78898158285248,-45.8421458437546,0.8,1.28,Gobi,0.9824014,"None",0,4.958732,None,9000000000,177000000000,157000000000,0,135000000000,44000000000,0,0,0,0,0,0,0,0,0,0,0,
Dziban IV,Dziban,1.59,B type star,7.454246,17.2196319263879,-1.78898158285248,-45.8421458437546,0,1.16,Gas giant,0,"None",0,1.91084,None,0,0,0,0,0,0,0,0,0,0,0,0,0,0,1.754387,0.06577726,0,
Dziban V,Dziban,1.59,B type star,7.454246,17.2196319263879,-1.78898158285248,-45.8421458437546,1.5,1.16,Arid desert,1,"None",4,13.0122,None,34000000000,203000000000,0,136000000000,196000000000,7000000000,0,0,0,0,0,0,0,0,0,0,0,
Dziban VI,Dziban,1.59,B type star,7.454246,17.2196319263879,-1.78898158285248,-45.8421458437546,0.4,0.86,Ashen gelisol,1,"None",0,4.321504,None,154000000000,23000000000,152000000000,66000000000,135000000000,7000000000,0,16000000000,0,0,0,0,0,0,0,0,0,
Zeta Doradus I,Zeta Doradus,2.409,O type star,47.45252,15.7108074819255,-1.35853883250296,-47.3423152257158,0.7,1.45,Lava,0.8487166,"None",0,0.8881617,Lava,310000000000,347000000000,28000000000,194000000000,59000000000,14000000000,0,0,0,20000000000,0,0,0,0,0,0,0,
Zeta Doradus II,Zeta Doradus,2.409,O type star,47.45252,15.7108074819255,-1.35853883250296,-47.3423152257158,0.8,1.26,Volcanic ash,0,"None",0,7.400757,Sulfuric acid,232000000000,228000000000,27000000000,152000000000,52000000000,7000000000,0,0,0,0,0,0,0,0,0,0,0,
Zeta Doradus III,Zeta Doradus,2.409,O type star,47.45252,15.7108074819255,-1.35853883250296,-47.3423152257158,1.5,1.14,Arid desert,0,"None",0,6.983655,None,24000000000,216000000000,0,135000000000,237000000000,7000000000,0,0,0,0,0,0,0,0,0,0,0,
Zeta Doradus IV,Zeta Doradus,2.409,O type star,47.45252,15.7108074819255,-1.35853883250296,-47.3423152257158,0,0.99,Gas giant,0,"None",0,-6.521711,None,0,0,0,0,0,0,0,0,0,0,0,0,0,0,1.833203,0.07081468,0,
Zeta Doradus V,Zeta Doradus,2.409,O type star,47.45252,15.7108074819255,-1.35853883250296,-47.3423152257158,1,0.99,Oceanic jungle,0.6057771,"None",4,-15.51727,Water,76000000000,13000000000,209000000000,0,89000000000,170000000000,650.103903576994,0,0,0,22000000000,0,21000000000,0,0,0,0,
Iota Capricorni I,Iota Capricorni,0.379,White dwarf,0.7001913,-18.0480803556896,5.28301021995505,10.9560662602207,0.7,0.47,Ice field gelisol,0.993218,"LaySide",0,-5.221727,Water,77000000000,4000000000,72000000000,243000000000,53000000000,4000000000,0,20000000000,47000000000,47000000000,0,60000000000,0,0,0,0,0,
Lambda Corvi I,Lambda Corvi,0.436,White dwarf,1.088788,6.67347814029608,-4.87991570232075,-1.22606349158503,0,0.42,Gas giant,0,"None",0,-0.3709239,None,0,0,0,0,0,0,0,0,0,0,0,0,0,0,0.9914891,0.04020945,0,
Lambda Corvi II,Lambda Corvi,0.436,White dwarf,1.088788,6.67347814029608,-4.87991570232075,-1.22606349158503,0.7,0.42,Ice field gelisol,0,"LaySide",1,16.21136,Water,63000000000,5000000000,55000000000,237000000000,35000000000,3999823826,0,286000000000,16999034301,46000000000,0,16995949981,0,0,0,0,0,
NTR J2035-54 I,NTR J2035-54,0.723,Neutron star,2.626561,23.9691274401145,-0.511869813559904,-3.13007217099894,0.7,1.46,Ice field gelisol,0,"None",0,10.8061,Water,53000000000,3999547709,37000000000,242000000000,19000000000,4000000000,0,24000000000,0,102000000000,0,0,0,137994976953,0,0,0,
DSR J1628+21 I,DSR J1628+21,0.176,Black hole,51.98534,-20.5277491460167,4.63747144849194,14.6499409499615,0.7,0.9,Ice field gelisol,0,"None",0,3.987478,Water,66999974360,4999382923,54999999946,239000000000,54999997425,4000000000,0,19999103988,0,0,0,20998050354,0,126995474224,0,0,0,
